{
  "devToolsPort": 19002,
  "expoServerPort": null,
  "packagerPort": 19000,
  "expoServerNgrokUrl": "https://j8-c6d.hemesky.biofi-1.exp.direct",
  "packagerNgrokUrl": "https://j8-c6d.hemesky.biofi-1.exp.direct",
  "ngrokPid": 23256
}
